[
    {
        "id": 142,
        "name": "Talca Terminal",
        "format": "EXPRESS",
        "location": {
            "country": {
                "code": "CL",
                "name": "CHILE"
            },
            "region": "VII Región",
            "city": "Talca",
            "commune": "Talca",
            "address": "Calle 2 Sur n° 2015, Talca",
            "position": {
                "coordinates": [
                    -71.645057,
                    -35.4288
                ],
                "type": "Point"
            }
        },
        "openingHours": [
            {
                "day": 1,
                "openTime": "8:30",
                "closeTime": "22:00"
            },
            {
                "day": 2,
                "openTime": "8:30",
                "closeTime": "22:00"
            },
            {
                "day": 3,
                "openTime": "8:30",
                "closeTime": "22:00"
            },
            {
                "day": 4,
                "openTime": "8:30",
                "closeTime": "22:00"
            },
            {
                "day": 5,
                "openTime": "8:30",
                "closeTime": "22:00"
            },
            {
                "day": 6,
                "openTime": "8:30",
                "closeTime": "22:00"
            },
            {
                "day": 7,
                "openTime": "8:30",
                "closeTime": "22:00"
            }
        ]
    },
    {
        "id": 143,
        "name": "Talca La Florida",
        "format": "LIDER",
        "location": {
            "country": {
                "code": "CL",
                "name": "CHILE"
            },
            "region": "VII Región",
            "city": "Talca",
            "commune": "Talca",
            "address": "Av. Colín N° 240, Talca",
            "position": {
                "coordinates": [
                    -71.683291,
                    -35.441128
                ],
                "type": "Point"
            }
        },
        "openingHours": [
            {
                "day": 1,
                "openTime": "8:30",
                "closeTime": "22:00"
            },
            {
                "day": 2,
                "openTime": "8:30",
                "closeTime": "22:00"
            },
            {
                "day": 3,
                "openTime": "8:30",
                "closeTime": "22:00"
            },
            {
                "day": 4,
                "openTime": "8:30",
                "closeTime": "22:00"
            },
            {
                "day": 5,
                "openTime": "8:30",
                "closeTime": "22:00"
            },
            {
                "day": 6,
                "openTime": "8:30",
                "closeTime": "22:00"
            },
            {
                "day": 7,
                "openTime": "8:30",
                "closeTime": "22:00"
            }
        ]
    },
    {
        "id": 144,
        "name": "Parral",
        "format": "EXPRESS",
        "location": {
            "country": {
                "code": "CL",
                "name": "CHILE"
            },
            "region": "VII Región",
            "city": "Parral",
            "commune": "Parral",
            "address": "Calle Anibal Pinto N° 299, Parral",
            "position": {
                "coordinates": [
                    -71.828851,
                    -36.139175
                ],
                "type": "Point"
            }
        },
        "openingHours": [
            {
                "day": 1,
                "openTime": "8:30",
                "closeTime": "22:00"
            },
            {
                "day": 2,
                "openTime": "8:30",
                "closeTime": "22:00"
            },
            {
                "day": 3,
                "openTime": "8:30",
                "closeTime": "22:00"
            },
            {
                "day": 4,
                "openTime": "8:30",
                "closeTime": "22:00"
            },
            {
                "day": 5,
                "openTime": "8:30",
                "closeTime": "22:00"
            },
            {
                "day": 6,
                "openTime": "8:30",
                "closeTime": "22:00"
            },
            {
                "day": 7,
                "openTime": "8:30",
                "closeTime": "22:00"
            }
        ]
    },
    {
        "id": 146,
        "name": "San Javier",
        "format": "EXPRESS",
        "location": {
            "country": {
                "code": "CL",
                "name": "CHILE"
            },
            "region": "VII Región",
            "city": "San Javier",
            "commune": "San Javier",
            "address": "Calle Chorrillos N°1821, San Javier",
            "position": {
                "coordinates": [
                    -71.732669,
                    -35.600246
                ],
                "type": "Point"
            }
        },
        "openingHours": [
            {
                "day": 1,
                "openTime": "8:30",
                "closeTime": "22:00"
            },
            {
                "day": 2,
                "openTime": "8:30",
                "closeTime": "22:00"
            },
            {
                "day": 3,
                "openTime": "8:30",
                "closeTime": "22:00"
            },
            {
                "day": 4,
                "openTime": "8:30",
                "closeTime": "22:00"
            },
            {
                "day": 5,
                "openTime": "8:30",
                "closeTime": "22:00"
            },
            {
                "day": 6,
                "openTime": "8:30",
                "closeTime": "22:00"
            },
            {
                "day": 7,
                "openTime": "8:30",
                "closeTime": "22:00"
            }
        ]
    },
    {
        "id": 600,
        "name": "La Ligua",
        "format": "EXPRESS",
        "location": {
            "country": {
                "code": "CL",
                "name": "CHILE"
            },
            "region": "V Región",
            "city": "La Ligua",
            "commune": "La Ligua",
            "address": "Santa Teresa 735, La Ligua",
            "position": {
                "coordinates": [
                    -71.233694,
                    -32.446547
                ],
                "type": "Point"
            }
        },
        "openingHours": [
            {
                "day": 1,
                "openTime": "8:30",
                "closeTime": "22:00"
            },
            {
                "day": 2,
                "openTime": "8:30",
                "closeTime": "22:00"
            },
            {
                "day": 3,
                "openTime": "8:30",
                "closeTime": "22:00"
            },
            {
                "day": 4,
                "openTime": "8:30",
                "closeTime": "22:00"
            },
            {
                "day": 5,
                "openTime": "8:30",
                "closeTime": "22:00"
            },
            {
                "day": 6,
                "openTime": "8:30",
                "closeTime": "22:00"
            },
            {
                "day": 7,
                "openTime": "8:30",
                "closeTime": "22:00"
            }
        ]
    },
    {
        "id": 601,
        "name": "Los Andes",
        "format": "EXPRESS",
        "location": {
            "country": {
                "code": "CL",
                "name": "CHILE"
            },
            "region": "V Región",
            "city": "Los Andes",
            "commune": "Los Andes",
            "address": "Papudo 261, Los Andes",
            "position": {
                "coordinates": [
                    -70.599605,
                    -32.83211
                ],
                "type": "Point"
            }
        },
        "openingHours": [
            {
                "day": 1,
                "openTime": "8:30",
                "closeTime": "22:00"
            },
            {
                "day": 2,
                "openTime": "8:30",
                "closeTime": "22:00"
            },
            {
                "day": 3,
                "openTime": "8:30",
                "closeTime": "22:00"
            },
            {
                "day": 4,
                "openTime": "8:30",
                "closeTime": "22:00"
            },
            {
                "day": 5,
                "openTime": "8:30",
                "closeTime": "22:00"
            },
            {
                "day": 6,
                "openTime": "8:30",
                "closeTime": "22:00"
            },
            {
                "day": 7,
                "openTime": "8:30",
                "closeTime": "22:00"
            }
        ]
    },
    {
        "id": 134,
        "name": "Los Angeles",
        "format": "EXPRESS",
        "location": {
            "country": {
                "code": "CL",
                "name": "CHILE"
            },
            "region": "VIII Región",
            "city": "Los Ángeles",
            "commune": "Los Ángeles",
            "address": "Calle Villagran 551, Los Angeles",
            "position": {
                "coordinates": [
                    -72.347263,
                    -37.465989
                ],
                "type": "Point"
            }
        },
        "openingHours": [
            {
                "day": 1,
                "openTime": "8:30",
                "closeTime": "22:00"
            },
            {
                "day": 2,
                "openTime": "8:30",
                "closeTime": "22:00"
            },
            {
                "day": 3,
                "openTime": "8:30",
                "closeTime": "22:00"
            },
            {
                "day": 4,
                "openTime": "8:30",
                "closeTime": "22:00"
            },
            {
                "day": 5,
                "openTime": "8:30",
                "closeTime": "22:00"
            },
            {
                "day": 6,
                "openTime": "8:30",
                "closeTime": "22:00"
            },
            {
                "day": 7,
                "openTime": "8:30",
                "closeTime": "22:00"
            }
        ]
    },
    {
        "id": 140,
        "name": "Las Rejas",
        "format": "EXPRESS",
        "location": {
            "country": {
                "code": "CL",
                "name": "CHILE"
            },
            "region": "Metropolitana",
            "city": "Santiago",
            "commune": "Estación Central",
            "address": "Av. Lib. Bernardo O´Higgins 5199, Estacion Central",
            "position": {
                "coordinates": [
                    -70.705328,
                    -33.456499
                ],
                "type": "Point"
            }
        },
        "openingHours": [
            {
                "day": 1,
                "openTime": "8:30",
                "closeTime": "22:00"
            },
            {
                "day": 2,
                "openTime": "8:30",
                "closeTime": "22:00"
            },
            {
                "day": 3,
                "openTime": "8:30",
                "closeTime": "22:00"
            },
            {
                "day": 4,
                "openTime": "8:30",
                "closeTime": "22:00"
            },
            {
                "day": 5,
                "openTime": "8:30",
                "closeTime": "22:00"
            },
            {
                "day": 6,
                "openTime": "8:30",
                "closeTime": "22:00"
            },
            {
                "day": 7,
                "openTime": "8:30",
                "closeTime": "22:00"
            }
        ]
    },
    {
        "id": 602,
        "name": "Los Andes Vecino",
        "format": "LIDER",
        "location": {
            "country": {
                "code": "CL",
                "name": "CHILE"
            },
            "region": "V Región",
            "city": "Los Andes",
            "commune": "Los Andes",
            "address": "Av. Santa Teresa N°683, Los Andes",
            "position": {
                "coordinates": [
                    -70.604835,
                    -32.835116
                ],
                "type": "Point"
            }
        },
        "openingHours": [
            {
                "day": 1,
                "openTime": "8:30",
                "closeTime": "22:00"
            },
            {
                "day": 2,
                "openTime": "8:30",
                "closeTime": "22:00"
            },
            {
                "day": 3,
                "openTime": "8:30",
                "closeTime": "22:00"
            },
            {
                "day": 4,
                "openTime": "8:30",
                "closeTime": "22:00"
            },
            {
                "day": 5,
                "openTime": "8:30",
                "closeTime": "22:00"
            },
            {
                "day": 6,
                "openTime": "8:30",
                "closeTime": "22:00"
            },
            {
                "day": 7,
                "openTime": "8:30",
                "closeTime": "22:00"
            }
        ]
    },
    {
        "id": 137,
        "name": "San Pablo",
        "format": "LIDER",
        "location": {
            "country": {
                "code": "CL",
                "name": "CHILE"
            },
            "region": "Metropolitana",
            "city": "Santiago",
            "commune": "Lo Prado",
            "address": "Neptuno N°720, Lo Prado",
            "position": {
                "coordinates": [
                    -70.724049,
                    -33.44525
                ],
                "type": "Point"
            }
        },
        "openingHours": [
            {
                "day": 1,
                "openTime": "8:30",
                "closeTime": "22:00"
            },
            {
                "day": 2,
                "openTime": "8:30",
                "closeTime": "22:00"
            },
            {
                "day": 3,
                "openTime": "8:30",
                "closeTime": "22:00"
            },
            {
                "day": 4,
                "openTime": "8:30",
                "closeTime": "22:00"
            },
            {
                "day": 5,
                "openTime": "8:30",
                "closeTime": "22:00"
            },
            {
                "day": 6,
                "openTime": "8:30",
                "closeTime": "22:00"
            },
            {
                "day": 7,
                "openTime": "8:30",
                "closeTime": "22:00"
            }
        ]
    },
    {
        "id": 139,
        "name": "Colina",
        "format": "EXPRESS",
        "location": {
            "country": {
                "code": "CL",
                "name": "CHILE"
            },
            "region": "Metropolitana",
            "city": "Santiago",
            "commune": "Colina",
            "address": "Av. Chicureo s/n Sector Laguna Piedra Roja, Colina",
            "position": {
                "coordinates": [
                    -70.627963,
                    -33.276841
                ],
                "type": "Point"
            }
        },
        "openingHours": [
            {
                "day": 1,
                "openTime": "8:30",
                "closeTime": "22:00"
            },
            {
                "day": 2,
                "openTime": "8:30",
                "closeTime": "22:00"
            },
            {
                "day": 3,
                "openTime": "8:30",
                "closeTime": "22:00"
            },
            {
                "day": 4,
                "openTime": "8:30",
                "closeTime": "22:00"
            },
            {
                "day": 5,
                "openTime": "8:30",
                "closeTime": "22:00"
            },
            {
                "day": 6,
                "openTime": "8:30",
                "closeTime": "22:00"
            },
            {
                "day": 7,
                "openTime": "8:30",
                "closeTime": "22:00"
            }
        ]
    },
    {
        "id": 204,
        "name": "Providencia & Antonio Bellet",
        "format": "EKONO",
        "location": {
            "country": {
                "code": "CL",
                "name": "CHILE"
            },
            "region": "Metropolitana",
            "city": "Santiago",
            "commune": "Providencia",
            "address": "Providencia 1630, Providencia",
            "position": {
                "coordinates": [
                    -70.616212,
                    -33.426777
                ],
                "type": "Point"
            }
        },
        "openingHours": []
    },
    {
        "id": 206,
        "name": "Alameda & Ula",
        "format": "EKONO",
        "location": {
            "country": {
                "code": "CL",
                "name": "CHILE"
            },
            "region": "Metropolitana",
            "city": "Santiago",
            "commune": "Santiago",
            "address": "Alameda 2843, Santiago",
            "position": {
                "coordinates": [
                    -70.673669,
                    -33.449125
                ],
                "type": "Point"
            }
        },
        "openingHours": []
    },
    {
        "id": 202,
        "name": "Curico",
        "format": "EKONO",
        "location": {
            "country": {
                "code": "CL",
                "name": "CHILE"
            },
            "region": "Metropolitana",
            "city": "Santiago",
            "commune": "Santiago",
            "address": "Curicó 517, Santiago",
            "position": {
                "coordinates": [
                    -70.643052,
                    -33.446027
                ],
                "type": "Point"
            }
        },
        "openingHours": []
    },
    {
        "id": 201,
        "name": "San Diego",
        "format": "EKONO",
        "location": {
            "country": {
                "code": "CL",
                "name": "CHILE"
            },
            "region": "Metropolitana",
            "city": "Santiago",
            "commune": "Santiago",
            "address": "San Diego 219, Santiago",
            "position": {
                "coordinates": [
                    -70.651193,
                    -33.447974
                ],
                "type": "Point"
            }
        },
        "openingHours": []
    },
    {
        "id": 203,
        "name": "San Pablo",
        "format": "EKONO",
        "location": {
            "country": {
                "code": "CL",
                "name": "CHILE"
            },
            "region": "Metropolitana",
            "city": "Santiago",
            "commune": "Santiago",
            "address": "San Pablo 2902, Santiago",
            "position": {
                "coordinates": [
                    -70.676269,
                    -33.435582
                ],
                "type": "Point"
            }
        },
        "openingHours": []
    },
    {
        "id": 209,
        "name": "Pedro De Valdivia & Plaza Za#A",
        "format": "EKONO",
        "location": {
            "country": {
                "code": "CL",
                "name": "CHILE"
            },
            "region": "Metropolitana",
            "city": "Santiago",
            "commune": "Ñuñoa",
            "address": "P. de Valdivia 5359, Ñuñoa",
            "position": {
                "coordinates": [
                    -70.606737,
                    -33.47311
                ],
                "type": "Point"
            }
        },
        "openingHours": []
    },
    {
        "id": 208,
        "name": "Plaza P. Alto & Jose Luis Coo",
        "format": "EKONO",
        "location": {
            "country": {
                "code": "CL",
                "name": "CHILE"
            },
            "region": "Metropolitana",
            "city": "Santiago",
            "commune": "Puente Alto",
            "address": "Jose L. Coo 0158, Puente Alto",
            "position": {
                "coordinates": [
                    -70.574013,
                    -33.608785
                ],
                "type": "Point"
            }
        },
        "openingHours": []
    },
    {
        "id": 210,
        "name": "Recoleta & Einstein",
        "format": "EKONO",
        "location": {
            "country": {
                "code": "CL",
                "name": "CHILE"
            },
            "region": "Metropolitana",
            "city": "Santiago",
            "commune": "Recoleta",
            "address": "Recoleta 2302, Recoleta",
            "position": {
                "coordinates": [
                    -70.643477,
                    -33.405548
                ],
                "type": "Point"
            }
        },
        "openingHours": []
    },
    {
        "id": 213,
        "name": "Tobalaba & Las Hortensias",
        "format": "EKONO",
        "location": {
            "country": {
                "code": "CL",
                "name": "CHILE"
            },
            "region": "Metropolitana",
            "city": "Santiago",
            "commune": "Providencia",
            "address": "Tobalaba 1177, Providencia",
            "position": {
                "coordinates": [
                    -70.592636,
                    -33.425603
                ],
                "type": "Point"
            }
        },
        "openingHours": []
    },
    {
        "id": 205,
        "name": "Bandera & San Pablo",
        "format": "EKONO",
        "location": {
            "country": {
                "code": "CL",
                "name": "CHILE"
            },
            "region": "Metropolitana",
            "city": "Santiago",
            "commune": "Santiago",
            "address": "Bandera 814, Santiago",
            "position": {
                "coordinates": [
                    -70.653251,
                    -33.434259
                ],
                "type": "Point"
            }
        },
        "openingHours": []
    },
    {
        "id": 211,
        "name": "Coventry & Simon Bolivar",
        "format": "EKONO",
        "location": {
            "country": {
                "code": "CL",
                "name": "CHILE"
            },
            "region": "Metropolitana",
            "city": "Santiago",
            "commune": "Ñuñoa",
            "address": "Coventry 601, Ñuñoa",
            "position": {
                "coordinates": [
                    -70.580442,
                    -33.448697
                ],
                "type": "Point"
            }
        },
        "openingHours": []
    },
    {
        "id": 207,
        "name": "Colombia & Walker Martinez",
        "format": "EKONO",
        "location": {
            "country": {
                "code": "CL",
                "name": "CHILE"
            },
            "region": "Metropolitana",
            "city": "Santiago",
            "commune": "La Florida",
            "address": "Colombia 7111, La Florida",
            "position": {
                "coordinates": [
                    -70.590625,
                    -33.521841
                ],
                "type": "Point"
            }
        },
        "openingHours": []
    },
    {
        "id": 603,
        "name": "Lider Consistorial",
        "format": "EXPRESS",
        "location": {
            "country": {
                "code": "CL",
                "name": "CHILE"
            },
            "region": "Metropolitana",
            "city": "Santiago",
            "commune": "peñalolén",
            "address": "Consistorial 3349, Peñalolen",
            "position": {
                "coordinates": [
                    -70.549526,
                    -33.487964
                ],
                "type": "Point"
            }
        },
        "openingHours": [
            {
                "day": 1,
                "openTime": "8:30",
                "closeTime": "22:00"
            },
            {
                "day": 2,
                "openTime": "8:30",
                "closeTime": "22:00"
            },
            {
                "day": 3,
                "openTime": "8:30",
                "closeTime": "22:00"
            },
            {
                "day": 4,
                "openTime": "8:30",
                "closeTime": "22:00"
            },
            {
                "day": 5,
                "openTime": "8:30",
                "closeTime": "22:00"
            },
            {
                "day": 6,
                "openTime": "8:30",
                "closeTime": "22:00"
            },
            {
                "day": 7,
                "openTime": "8:30",
                "closeTime": "22:00"
            }
        ]
    },
    {
        "id": 223,
        "name": "San Francisco & San Andres",
        "format": "EKONO",
        "location": {
            "country": {
                "code": "CL",
                "name": "CHILE"
            },
            "region": "Metropolitana",
            "city": "Santiago",
            "commune": "Pudahuel",
            "address": "San Fco 8520, Pudahuel",
            "position": {
                "coordinates": [
                    -70.746423,
                    -33.436766
                ],
                "type": "Point"
            }
        },
        "openingHours": []
    },
    {
        "id": 216,
        "name": "El Olimpo",
        "format": "EKONO",
        "location": {
            "country": {
                "code": "CL",
                "name": "CHILE"
            },
            "region": "Metropolitana",
            "city": "Santiago",
            "commune": "Maipú",
            "address": "El Olimpo 1990, Maipu",
            "position": {
                "coordinates": [
                    -70.775818,
                    -33.512295
                ],
                "type": "Point"
            }
        },
        "openingHours": []
    },
    {
        "id": 217,
        "name": "Los Leones",
        "format": "EKONO",
        "location": {
            "country": {
                "code": "CL",
                "name": "CHILE"
            },
            "region": "Metropolitana",
            "city": "Santiago",
            "commune": "Ñuñoa",
            "address": "General Jose Artigas 2877, Ñuñoa",
            "position": {
                "coordinates": [
                    -70.599404,
                    -33.445337
                ],
                "type": "Point"
            }
        },
        "openingHours": []
    },
    {
        "id": 605,
        "name": "La Serena Express",
        "format": "EXPRESS",
        "location": {
            "country": {
                "code": "CL",
                "name": "CHILE"
            },
            "region": "IV Región",
            "city": "La Serena",
            "commune": "La serena",
            "address": "Balmaceda 2154, La serena",
            "position": {
                "coordinates": [
                    -71.254117,
                    -29.92009
                ],
                "type": "Point"
            }
        },
        "openingHours": [
            {
                "day": 1,
                "openTime": "8:30",
                "closeTime": "22:00"
            },
            {
                "day": 2,
                "openTime": "8:30",
                "closeTime": "22:00"
            },
            {
                "day": 3,
                "openTime": "8:30",
                "closeTime": "22:00"
            },
            {
                "day": 4,
                "openTime": "8:30",
                "closeTime": "22:00"
            },
            {
                "day": 5,
                "openTime": "8:30",
                "closeTime": "22:00"
            },
            {
                "day": 6,
                "openTime": "8:30",
                "closeTime": "22:00"
            },
            {
                "day": 7,
                "openTime": "8:30",
                "closeTime": "22:00"
            }
        ]
    },
    {
        "id": 220,
        "name": "Arrieta",
        "format": "EKONO",
        "location": {
            "country": {
                "code": "CL",
                "name": "CHILE"
            },
            "region": "Metropolitana",
            "city": "Santiago",
            "commune": "La Reina",
            "address": "Arrieta 6682, La Reina",
            "position": {
                "coordinates": [
                    -70.560223,
                    -33.462297
                ],
                "type": "Point"
            }
        },
        "openingHours": []
    },
    {
        "id": 606,
        "name": "Lider Coronel",
        "format": "LIDER",
        "location": {
            "country": {
                "code": "CL",
                "name": "CHILE"
            },
            "region": "VIII Región",
            "city": "Coronel",
            "commune": "Coronel",
            "address": "Av. Manuel Montt 2328, Coronel",
            "position": {
                "coordinates": [
                    -73.161905,
                    -36.994258
                ],
                "type": "Point"
            }
        },
        "openingHours": [
            {
                "day": 1,
                "openTime": "8:30",
                "closeTime": "22:00"
            },
            {
                "day": 2,
                "openTime": "8:30",
                "closeTime": "22:00"
            },
            {
                "day": 3,
                "openTime": "8:30",
                "closeTime": "22:00"
            },
            {
                "day": 4,
                "openTime": "8:30",
                "closeTime": "22:00"
            },
            {
                "day": 5,
                "openTime": "8:30",
                "closeTime": "22:00"
            },
            {
                "day": 6,
                "openTime": "8:30",
                "closeTime": "22:00"
            },
            {
                "day": 7,
                "openTime": "8:30",
                "closeTime": "22:00"
            }
        ]
    },
    {
        "id": 607,
        "name": "Lider Melipilla",
        "format": "LIDER",
        "location": {
            "country": {
                "code": "CL",
                "name": "CHILE"
            },
            "region": "Metropolitana",
            "city": "Melipilla",
            "commune": "Melipilla",
            "address": "Av. Vicuña Mackenna 0153, Melipilla",
            "position": {
                "coordinates": [
                    -71.203466,
                    -33.680299
                ],
                "type": "Point"
            }
        },
        "openingHours": [
            {
                "day": 1,
                "openTime": "8:30",
                "closeTime": "22:00"
            },
            {
                "day": 2,
                "openTime": "8:30",
                "closeTime": "22:00"
            },
            {
                "day": 3,
                "openTime": "8:30",
                "closeTime": "22:00"
            },
            {
                "day": 4,
                "openTime": "8:30",
                "closeTime": "22:00"
            },
            {
                "day": 5,
                "openTime": "8:30",
                "closeTime": "22:00"
            },
            {
                "day": 6,
                "openTime": "8:30",
                "closeTime": "22:00"
            },
            {
                "day": 7,
                "openTime": "8:30",
                "closeTime": "22:00"
            }
        ]
    },
    {
        "id": 608,
        "name": "Lider Chillan",
        "format": "LIDER",
        "location": {
            "country": {
                "code": "CL",
                "name": "CHILE"
            },
            "region": "VIII Región",
            "city": "Chillán",
            "commune": "Chillán",
            "address": "Av. Collin Nº 698, Chillan",
            "position": {
                "coordinates": [
                    -72.105864,
                    -36.615696
                ],
                "type": "Point"
            }
        },
        "openingHours": [
            {
                "day": 1,
                "openTime": "8:30",
                "closeTime": "22:00"
            },
            {
                "day": 2,
                "openTime": "8:30",
                "closeTime": "22:00"
            },
            {
                "day": 3,
                "openTime": "8:30",
                "closeTime": "22:00"
            },
            {
                "day": 4,
                "openTime": "8:30",
                "closeTime": "22:00"
            },
            {
                "day": 5,
                "openTime": "8:30",
                "closeTime": "22:00"
            },
            {
                "day": 6,
                "openTime": "8:30",
                "closeTime": "22:00"
            },
            {
                "day": 7,
                "openTime": "8:30",
                "closeTime": "22:00"
            }
        ]
    },
    {
        "id": 218,
        "name": "Santa Isabel",
        "format": "EKONO",
        "location": {
            "country": {
                "code": "CL",
                "name": "CHILE"
            },
            "region": "Metropolitana",
            "city": "Santiago",
            "commune": "Providencia",
            "address": "Santa Isabel 861, Providencia",
            "position": {
                "coordinates": [
                    -70.619797,
                    -33.445387
                ],
                "type": "Point"
            }
        },
        "openingHours": []
    },
    {
        "id": 215,
        "name": "Grajales",
        "format": "EKONO",
        "location": {
            "country": {
                "code": "CL",
                "name": "CHILE"
            },
            "region": "Metropolitana",
            "city": "Santiago",
            "commune": "Santiago",
            "address": "Grajales 2146, Santiago",
            "position": {
                "coordinates": [
                    -70.665422,
                    -33.451963
                ],
                "type": "Point"
            }
        },
        "openingHours": []
    },
    {
        "id": 229,
        "name": "Ramon Cruz",
        "format": "EKONO",
        "location": {
            "country": {
                "code": "CL",
                "name": "CHILE"
            },
            "region": "Metropolitana",
            "city": "Santiago",
            "commune": "Macul",
            "address": "Ramón Cruz 3219, Macul",
            "position": {
                "coordinates": [
                    -70.585443,
                    -33.484802
                ],
                "type": "Point"
            }
        },
        "openingHours": []
    },
    {
        "id": 610,
        "name": "Nonato Coo",
        "format": "EXPRESS",
        "location": {
            "country": {
                "code": "CL",
                "name": "CHILE"
            },
            "region": "Metropolitana",
            "city": "Santiago",
            "commune": "Puente Alto",
            "address": "Av. Nonato Coo Nº 3108, Puente Alto",
            "position": {
                "coordinates": [
                    -70.569465,
                    -33.580527
                ],
                "type": "Point"
            }
        },
        "openingHours": [
            {
                "day": 1,
                "openTime": "8:30",
                "closeTime": "22:00"
            },
            {
                "day": 2,
                "openTime": "8:30",
                "closeTime": "22:00"
            },
            {
                "day": 3,
                "openTime": "8:30",
                "closeTime": "22:00"
            },
            {
                "day": 4,
                "openTime": "8:30",
                "closeTime": "22:00"
            },
            {
                "day": 5,
                "openTime": "8:30",
                "closeTime": "22:00"
            },
            {
                "day": 6,
                "openTime": "8:30",
                "closeTime": "22:00"
            },
            {
                "day": 7,
                "openTime": "8:30",
                "closeTime": "22:00"
            }
        ]
    },
    {
        "id": 214,
        "name": "Vicuna Mackenna & Trinidad",
        "format": "EKONO",
        "location": {
            "country": {
                "code": "CL",
                "name": "CHILE"
            },
            "region": "Metropolitana",
            "city": "Santiago",
            "commune": "La Florida",
            "address": "V. Mackenna 9840, La Florida",
            "position": {
                "coordinates": [
                    -70.586824,
                    -33.546702
                ],
                "type": "Point"
            }
        },
        "openingHours": []
    },
    {
        "id": 500,
        "name": "Ba Reñaca Alto",
        "format": "BODEGA",
        "location": {
            "country": {
                "code": "CL",
                "name": "CHILE"
            },
            "region": "V Región",
            "city": "Viña del Mar",
            "commune": "Viña del Mar",
            "address": "Calle Estero Maitenlahue 925 Reñaca Alto, Viña del Mar",
            "position": {
                "coordinates": [
                    -71.500371,
                    -32.995872
                ],
                "type": "Point"
            }
        },
        "openingHours": []
    },
    {
        "id": 228,
        "name": "Vitacura",
        "format": "EKONO",
        "location": {
            "country": {
                "code": "CL",
                "name": "CHILE"
            },
            "region": "Metropolitana",
            "city": "Santiago",
            "commune": "Vitacura",
            "address": "Vitacura 5302, Vitacura",
            "position": {
                "coordinates": [
                    -70.582004,
                    -33.39629
                ],
                "type": "Point"
            }
        },
        "openingHours": []
    },
    {
        "id": 230,
        "name": "Irarrazaval",
        "format": "EKONO",
        "location": {
            "country": {
                "code": "CL",
                "name": "CHILE"
            },
            "region": "Metropolitana",
            "city": "Santiago",
            "commune": "Ñuñoa",
            "address": "Irarrázaval 710, Ñuñoa",
            "position": {
                "coordinates": [
                    -70.622531,
                    -33.45334
                ],
                "type": "Point"
            }
        },
        "openingHours": []
    },
    {
        "id": 233,
        "name": "Carrascal",
        "format": "EKONO",
        "location": {
            "country": {
                "code": "CL",
                "name": "CHILE"
            },
            "region": "Metropolitana",
            "city": "Santiago",
            "commune": "Quinta Normal",
            "address": "Carrascal 4436, Quinta Normal",
            "position": {
                "coordinates": [
                    -70.694165,
                    -33.423426
                ],
                "type": "Point"
            }
        },
        "openingHours": []
    },
    {
        "id": 612,
        "name": "Chillan Express",
        "format": "EXPRESS",
        "location": {
            "country": {
                "code": "CL",
                "name": "CHILE"
            },
            "region": "VIII Región",
            "city": "Chillán",
            "commune": "Chillán",
            "address": "Av. Paul Harris N° 1155, Chillan",
            "position": {
                "coordinates": [
                    -72.084183,
                    -36.590227
                ],
                "type": "Point"
            }
        },
        "openingHours": [
            {
                "day": 1,
                "openTime": "8:30",
                "closeTime": "22:00"
            },
            {
                "day": 2,
                "openTime": "8:30",
                "closeTime": "22:00"
            },
            {
                "day": 3,
                "openTime": "8:30",
                "closeTime": "22:00"
            },
            {
                "day": 4,
                "openTime": "8:30",
                "closeTime": "22:00"
            },
            {
                "day": 5,
                "openTime": "8:30",
                "closeTime": "22:00"
            },
            {
                "day": 6,
                "openTime": "8:30",
                "closeTime": "22:00"
            },
            {
                "day": 7,
                "openTime": "8:30",
                "closeTime": "22:00"
            }
        ]
    },
    {
        "id": 501,
        "name": "Ba Temuco Terminal",
        "format": "BODEGA",
        "location": {
            "country": {
                "code": "CL",
                "name": "CHILE"
            },
            "region": "IX Región",
            "city": "Temuco",
            "commune": "Temuco",
            "address": "Av. Manuel Antonio Matta 025, Temuco",
            "position": {
                "coordinates": [
                    -72.580428,
                    -38.733814
                ],
                "type": "Point"
            }
        },
        "openingHours": []
    },
    {
        "id": 611,
        "name": "Rojas Magallanes",
        "format": "EXPRESS",
        "location": {
            "country": {
                "code": "CL",
                "name": "CHILE"
            },
            "region": "Metropolitana",
            "city": "Santiago",
            "commune": "La Florida",
            "address": "Av. Sanchez Fontecilla 8968, La Florida",
            "position": {
                "coordinates": [
                    -70.553601,
                    -33.534489
                ],
                "type": "Point"
            }
        },
        "openingHours": [
            {
                "day": 1,
                "openTime": "8:30",
                "closeTime": "22:00"
            },
            {
                "day": 2,
                "openTime": "8:30",
                "closeTime": "22:00"
            },
            {
                "day": 3,
                "openTime": "8:30",
                "closeTime": "22:00"
            },
            {
                "day": 4,
                "openTime": "8:30",
                "closeTime": "22:00"
            },
            {
                "day": 5,
                "openTime": "8:30",
                "closeTime": "22:00"
            },
            {
                "day": 6,
                "openTime": "8:30",
                "closeTime": "22:00"
            },
            {
                "day": 7,
                "openTime": "8:30",
                "closeTime": "22:00"
            }
        ]
    },
    {
        "id": 616,
        "name": "Maipu 3 Poniente",
        "format": "LIDER",
        "location": {
            "country": {
                "code": "CL",
                "name": "CHILE"
            },
            "region": "Metropolitana",
            "city": "Santiago",
            "commune": "Maipú",
            "address": "Av. Tres Poniente N° 900, Maipú",
            "position": {
                "coordinates": [
                    -70.777789,
                    -33.528372
                ],
                "type": "Point"
            }
        },
        "openingHours": [
            {
                "day": 1,
                "openTime": "8:30",
                "closeTime": "22:00"
            },
            {
                "day": 2,
                "openTime": "8:30",
                "closeTime": "22:00"
            },
            {
                "day": 3,
                "openTime": "8:30",
                "closeTime": "22:00"
            },
            {
                "day": 4,
                "openTime": "8:30",
                "closeTime": "22:00"
            },
            {
                "day": 5,
                "openTime": "8:30",
                "closeTime": "22:00"
            },
            {
                "day": 6,
                "openTime": "8:30",
                "closeTime": "22:00"
            },
            {
                "day": 7,
                "openTime": "8:30",
                "closeTime": "22:00"
            }
        ]
    },
    {
        "id": 613,
        "name": "Ciudad Del Este",
        "format": "EXPRESS",
        "location": {
            "country": {
                "code": "CL",
                "name": "CHILE"
            },
            "region": "Metropolitana",
            "city": "Santiago",
            "commune": "Puente Alto",
            "address": "Av. Diego Portales n° 06303, Puente Alto",
            "position": {
                "coordinates": [
                    -70.551378,
                    -33.560044
                ],
                "type": "Point"
            }
        },
        "openingHours": [
            {
                "day": 1,
                "openTime": "8:30",
                "closeTime": "22:00"
            },
            {
                "day": 2,
                "openTime": "8:30",
                "closeTime": "22:00"
            },
            {
                "day": 3,
                "openTime": "8:30",
                "closeTime": "22:00"
            },
            {
                "day": 4,
                "openTime": "8:30",
                "closeTime": "22:00"
            },
            {
                "day": 5,
                "openTime": "8:30",
                "closeTime": "22:00"
            },
            {
                "day": 6,
                "openTime": "8:30",
                "closeTime": "22:00"
            },
            {
                "day": 7,
                "openTime": "8:30",
                "closeTime": "22:00"
            }
        ]
    },
    {
        "id": 235,
        "name": "Primo De Rivera",
        "format": "EKONO",
        "location": {
            "country": {
                "code": "CL",
                "name": "CHILE"
            },
            "region": "Metropolitana",
            "city": "Santiago",
            "commune": "Maipú",
            "address": "Primo de Rivera 1447, Maipu",
            "position": {
                "coordinates": [
                    -70.738382,
                    -33.492954
                ],
                "type": "Point"
            }
        },
        "openingHours": []
    },
    {
        "id": 234,
        "name": "Observatorio",
        "format": "EKONO",
        "location": {
            "country": {
                "code": "CL",
                "name": "CHILE"
            },
            "region": "Metropolitana",
            "city": "Santiago",
            "commune": "El Bosque",
            "address": "Observatorio 645, El Bosque",
            "position": {
                "coordinates": [
                    -70.670066,
                    -33.560649
                ],
                "type": "Point"
            }
        },
        "openingHours": []
    },
    {
        "id": 236,
        "name": "Brasil-La Punta",
        "format": "EKONO",
        "location": {
            "country": {
                "code": "CL",
                "name": "CHILE"
            },
            "region": "Metropolitana",
            "city": "Santiago",
            "commune": "Renca",
            "address": "Brasil 7073, Renca",
            "position": {
                "coordinates": [
                    -70.744797,
                    -33.400087
                ],
                "type": "Point"
            }
        },
        "openingHours": []
    },
    {
        "id": 241,
        "name": "Laguna Sur I",
        "format": "EKONO",
        "location": {
            "country": {
                "code": "CL",
                "name": "CHILE"
            },
            "region": "Metropolitana",
            "city": "Santiago",
            "commune": "Pudahuel",
            "address": "Laguna Sur 8438, Pudahuel",
            "position": {
                "coordinates": [
                    -70.751655,
                    -33.460479
                ],
                "type": "Point"
            }
        },
        "openingHours": []
    },
    {
        "id": 240,
        "name": "Rinconada",
        "format": "EKONO",
        "location": {
            "country": {
                "code": "CL",
                "name": "CHILE"
            },
            "region": "Metropolitana",
            "city": "Santiago",
            "commune": "maipú",
            "address": "Rinconada 2301, Maipu",
            "position": {
                "coordinates": [
                    -70.786981,
                    -33.505587
                ],
                "type": "Point"
            }
        },
        "openingHours": []
    },
    {
        "id": 615,
        "name": "Express Pedro Montt",
        "format": "EXPRESS",
        "location": {
            "country": {
                "code": "CL",
                "name": "CHILE"
            },
            "region": "V Región",
            "city": "Valparaíso",
            "commune": "Valparaíso",
            "address": "Pedro Montt # 1875, Valparaíso",
            "position": {
                "coordinates": [
                    -71.616589,
                    -33.04589
                ],
                "type": "Point"
            }
        },
        "openingHours": [
            {
                "day": 1,
                "openTime": "8:30",
                "closeTime": "22:00"
            },
            {
                "day": 2,
                "openTime": "8:30",
                "closeTime": "22:00"
            },
            {
                "day": 3,
                "openTime": "8:30",
                "closeTime": "22:00"
            },
            {
                "day": 4,
                "openTime": "8:30",
                "closeTime": "22:00"
            },
            {
                "day": 5,
                "openTime": "8:30",
                "closeTime": "22:00"
            },
            {
                "day": 6,
                "openTime": "8:30",
                "closeTime": "22:00"
            },
            {
                "day": 7,
                "openTime": "8:30",
                "closeTime": "22:00"
            }
        ]
    },
    {
        "id": 502,
        "name": "Ba Linares Terminal",
        "format": "BODEGA",
        "location": {
            "country": {
                "code": "CL",
                "name": "CHILE"
            },
            "region": "VII Región",
            "city": "Linares",
            "commune": "Linares",
            "address": "Januario Espinoza 759, Linares",
            "position": {
                "coordinates": [
                    -71.589183,
                    -35.8454
                ],
                "type": "Point"
            }
        },
        "openingHours": []
    },
    {
        "id": 618,
        "name": "Casona Osorno",
        "format": "LIDER",
        "location": {
            "country": {
                "code": "CL",
                "name": "CHILE"
            },
            "region": "X Región",
            "city": "Osorno",
            "commune": "Osorno",
            "address": "Av. Alcalde Rene Soriano 2855, Osorno",
            "position": {
                "coordinates": [
                    -73.104194,
                    -40.589375
                ],
                "type": "Point"
            }
        },
        "openingHours": [
            {
                "day": 1,
                "openTime": "8:30",
                "closeTime": "22:00"
            },
            {
                "day": 2,
                "openTime": "8:30",
                "closeTime": "22:00"
            },
            {
                "day": 3,
                "openTime": "8:30",
                "closeTime": "22:00"
            },
            {
                "day": 4,
                "openTime": "8:30",
                "closeTime": "22:00"
            },
            {
                "day": 5,
                "openTime": "8:30",
                "closeTime": "22:00"
            },
            {
                "day": 6,
                "openTime": "8:30",
                "closeTime": "22:00"
            },
            {
                "day": 7,
                "openTime": "8:30",
                "closeTime": "22:00"
            }
        ]
    },
    {
        "id": 238,
        "name": "Portales",
        "format": "EKONO",
        "location": {
            "country": {
                "code": "CL",
                "name": "CHILE"
            },
            "region": "Metropolitana",
            "city": "Santiago",
            "commune": "maipú",
            "address": "Portales 1995, Maipu",
            "position": {
                "coordinates": [
                    -70.786963,
                    -33.518273
                ],
                "type": "Point"
            }
        },
        "openingHours": []
    },
    {
        "id": 227,
        "name": "Galileo",
        "format": "EKONO",
        "location": {
            "country": {
                "code": "CL",
                "name": "CHILE"
            },
            "region": "Metropolitana",
            "city": "Santiago",
            "commune": "Cerrillos",
            "address": "Galileo 1610, Cerrillos",
            "position": {
                "coordinates": [
                    -70.728617,
                    -33.498349
                ],
                "type": "Point"
            }
        },
        "openingHours": []
    },
    {
        "id": 239,
        "name": "Bagdag",
        "format": "EKONO",
        "location": {
            "country": {
                "code": "CL",
                "name": "CHILE"
            },
            "region": "Metropolitana",
            "city": "Santiago",
            "commune": "maipú",
            "address": "Bagdad 855-877, Maipu",
            "position": {
                "coordinates": [
                    -70.76916,
                    -33.544863
                ],
                "type": "Point"
            }
        },
        "openingHours": []
    },
    {
        "id": 619,
        "name": "Puerto Montt  4° Terraza",
        "format": "EXPRESS",
        "location": {
            "country": {
                "code": "CL",
                "name": "CHILE"
            },
            "region": "X Región",
            "city": "Puerto Montt",
            "commune": "Puerto Montt",
            "address": "Av.Monseñor Ramon Munita N° 1625, Puerto Montt",
            "position": {
                "coordinates": [
                    -72.934817,
                    -41.455411
                ],
                "type": "Point"
            }
        },
        "openingHours": [
            {
                "day": 1,
                "openTime": "8:30",
                "closeTime": "22:00"
            },
            {
                "day": 2,
                "openTime": "8:30",
                "closeTime": "22:00"
            },
            {
                "day": 3,
                "openTime": "8:30",
                "closeTime": "22:00"
            },
            {
                "day": 4,
                "openTime": "8:30",
                "closeTime": "22:00"
            },
            {
                "day": 5,
                "openTime": "8:30",
                "closeTime": "22:00"
            },
            {
                "day": 6,
                "openTime": "8:30",
                "closeTime": "22:00"
            },
            {
                "day": 7,
                "openTime": "8:30",
                "closeTime": "22:00"
            }
        ]
    },
    {
        "id": 245,
        "name": "Laguna Sur Ii",
        "format": "EKONO",
        "location": {
            "country": {
                "code": "CL",
                "name": "CHILE"
            },
            "region": "Metropolitana",
            "city": "Santiago",
            "commune": "Pudahuel",
            "address": "Laguna Sur - J. Guzmán, Pudahuel",
            "position": {
                "coordinates": [
                    -70.743408,
                    -33.461598
                ],
                "type": "Point"
            }
        },
        "openingHours": []
    },
    {
        "id": 246,
        "name": "San Pablo Ii",
        "format": "EKONO",
        "location": {
            "country": {
                "code": "CL",
                "name": "CHILE"
            },
            "region": "Metropolitana",
            "city": "Santiago",
            "commune": "Pudahuel",
            "address": "San Pablo 9091, Pudahuel",
            "position": {
                "coordinates": [
                    -70.762331,
                    -33.441416
                ],
                "type": "Point"
            }
        },
        "openingHours": []
    },
    {
        "id": 242,
        "name": "Los Leones Ii",
        "format": "EKONO",
        "location": {
            "country": {
                "code": "CL",
                "name": "CHILE"
            },
            "region": "Metropolitana",
            "city": "Santiago",
            "commune": "Providencia",
            "address": "Los Leones 1875, Providencia",
            "position": {
                "coordinates": [
                    -70.601338,
                    -33.43666
                ],
                "type": "Point"
            }
        },
        "openingHours": []
    },
    {
        "id": 503,
        "name": "Ba Gabriela",
        "format": "BODEGA",
        "location": {
            "country": {
                "code": "CL",
                "name": "CHILE"
            },
            "region": "Metropolitana",
            "city": "Santiago",
            "commune": "Puente Alto",
            "address": "Gabriela Poniente Nº 03960, Puente Alto",
            "position": {
                "coordinates": [
                    -70.606052,
                    -33.581814
                ],
                "type": "Point"
            }
        },
        "openingHours": []
    },
    {
        "id": 275,
        "name": "Bellavista",
        "format": "EKONO",
        "location": {
            "country": {
                "code": "CL",
                "name": "CHILE"
            },
            "region": "Metropolitana",
            "city": "Santiago",
            "commune": "Recoleta",
            "address": "Bellavista 257, Recoleta",
            "position": {
                "coordinates": [
                    -70.643307,
                    -33.433076
                ],
                "type": "Point"
            }
        },
        "openingHours": []
    },
    {
        "id": 262,
        "name": "Las Industrias",
        "format": "EKONO",
        "location": {
            "country": {
                "code": "CL",
                "name": "CHILE"
            },
            "region": "Metropolitana",
            "city": "Santiago",
            "commune": "San Joaquín",
            "address": "Las Industrias  5155, San Joaquin",
            "position": {
                "coordinates": [
                    -70.627288,
                    -33.503579
                ],
                "type": "Point"
            }
        },
        "openingHours": []
    },
    {
        "id": 258,
        "name": "Las Rejas Sur",
        "format": "EKONO",
        "location": {
            "country": {
                "code": "CL",
                "name": "CHILE"
            },
            "region": "Metropolitana",
            "city": "Santiago",
            "commune": "Estación Central",
            "address": "Las Rejas Sur 882, Estacion Central",
            "position": {
                "coordinates": [
                    -70.704771,
                    -33.464001
                ],
                "type": "Point"
            }
        },
        "openingHours": []
    },
    {
        "id": 261,
        "name": "Santa Raquel",
        "format": "EKONO",
        "location": {
            "country": {
                "code": "CL",
                "name": "CHILE"
            },
            "region": "Metropolitana",
            "city": "Santiago",
            "commune": "La Florida",
            "address": "Santa Raquel 10968, La Florida",
            "position": {
                "coordinates": [
                    -70.599891,
                    -33.561852
                ],
                "type": "Point"
            }
        },
        "openingHours": []
    },
    {
        "id": 504,
        "name": "Ba Travesia",
        "format": "BODEGA",
        "location": {
            "country": {
                "code": "CL",
                "name": "CHILE"
            },
            "region": "Metropolitana",
            "city": "Santiago",
            "commune": "Pudahuel",
            "address": "Av. Travesía Nº 7217, Pudahuel",
            "position": {
                "coordinates": [
                    -70.737816,
                    -33.4578
                ],
                "type": "Point"
            }
        },
        "openingHours": []
    },
    {
        "id": 505,
        "name": "Ba Andalien",
        "format": "BODEGA",
        "location": {
            "country": {
                "code": "CL",
                "name": "CHILE"
            },
            "region": "VIII Región",
            "city": "Concepción",
            "commune": "Concepción",
            "address": "Av. Andalién Nº 950, Concepción",
            "position": {
                "coordinates": [
                    -73.035633,
                    -36.79322
                ],
                "type": "Point"
            }
        },
        "openingHours": []
    },
    {
        "id": 269,
        "name": "El Salto",
        "format": "EKONO",
        "location": {
            "country": {
                "code": "CL",
                "name": "CHILE"
            },
            "region": "Metropolitana",
            "city": "Santiago",
            "commune": "Recoleta",
            "address": "El Salto 1871, Recoleta",
            "position": {
                "coordinates": [
                    -70.635476,
                    -33.409635
                ],
                "type": "Point"
            }
        },
        "openingHours": []
    },
    {
        "id": 506,
        "name": "Ba La Calera",
        "format": "BODEGA",
        "location": {
            "country": {
                "code": "CL",
                "name": "CHILE"
            },
            "region": "V Región",
            "city": "La Calera",
            "commune": "La Calera",
            "address": "Av. Latorre 280, La Calera",
            "position": {
                "coordinates": [
                    -71.185609,
                    -32.789754
                ],
                "type": "Point"
            }
        },
        "openingHours": []
    },
    {
        "id": 257,
        "name": "Eliodoro Yanez",
        "format": "EKONO",
        "location": {
            "country": {
                "code": "CL",
                "name": "CHILE"
            },
            "region": "Metropolitana",
            "city": "Santiago",
            "commune": "Providencia",
            "address": "Eliodoro Yáñez 1405, Providencia",
            "position": {
                "coordinates": [
                    -70.616578,
                    -33.433209
                ],
                "type": "Point"
            }
        },
        "openingHours": []
    },
    {
        "id": 507,
        "name": "Ba Carrascal",
        "format": "BODEGA",
        "location": {
            "country": {
                "code": "CL",
                "name": "CHILE"
            },
            "region": "Metropolitana",
            "city": "Santiago",
            "commune": "Quinta Normal",
            "address": "Av. Carrascal Nº 6015, Quinta Normal",
            "position": {
                "coordinates": [
                    -70.712066,
                    -33.415652
                ],
                "type": "Point"
            }
        },
        "openingHours": []
    },
    {
        "id": 256,
        "name": "Monckeberg",
        "format": "EKONO",
        "location": {
            "country": {
                "code": "CL",
                "name": "CHILE"
            },
            "region": "Metropolitana",
            "city": "Santiago",
            "commune": "Ñuñoa",
            "address": "Jorge Monckeberg 1911, Ñuñoa",
            "position": {
                "coordinates": [
                    -70.587612,
                    -33.472333
                ],
                "type": "Point"
            }
        },
        "openingHours": []
    },
    {
        "id": 508,
        "name": "Ba Talca Norte",
        "format": "BODEGA",
        "location": {
            "country": {
                "code": "CL",
                "name": "CHILE"
            },
            "region": "VII Región",
            "city": "Talca",
            "commune": "Talca",
            "address": "Avenida Lircay N°2301, Talca",
            "position": {
                "coordinates": [
                    -71.652432,
                    -35.412269
                ],
                "type": "Point"
            }
        },
        "openingHours": []
    },
    {
        "id": 267,
        "name": "Penaflor",
        "format": "EKONO",
        "location": {
            "country": {
                "code": "CL",
                "name": "CHILE"
            },
            "region": "Metropolitana",
            "city": "Santiago",
            "commune": "Peñaflor",
            "address": "Vicuña Mackenna 1918, Peñaflor",
            "position": {
                "coordinates": [
                    -70.879182,
                    -33.611481
                ],
                "type": "Point"
            }
        },
        "openingHours": []
    },
    {
        "id": 273,
        "name": "San Daniel",
        "format": "EKONO",
        "location": {
            "country": {
                "code": "CL",
                "name": "CHILE"
            },
            "region": "Metropolitana",
            "city": "Santiago",
            "commune": "Pudahuel",
            "address": "San Daniel / Sta Victoria, Pudahuel",
            "position": {
                "coordinates": [
                    -70.758072,
                    -33.431417
                ],
                "type": "Point"
            }
        },
        "openingHours": []
    },
    {
        "id": 268,
        "name": "Independencia I",
        "format": "EKONO",
        "location": {
            "country": {
                "code": "CL",
                "name": "CHILE"
            },
            "region": "Metropolitana",
            "city": "Santiago",
            "commune": "Independencia",
            "address": "Independencia 650, Independencia",
            "position": {
                "coordinates": [
                    -70.655665,
                    -33.42313
                ],
                "type": "Point"
            }
        },
        "openingHours": []
    },
    {
        "id": 620,
        "name": "Hiper Nos",
        "format": "LIDER",
        "location": {
            "country": {
                "code": "CL",
                "name": "CHILE"
            },
            "region": "Metropolitana",
            "city": "Santiago",
            "commune": "San Bernardo",
            "address": "Av. Santa Teresa N°683, San Bernardo",
            "position": {
                "coordinates": [
                    -70.711648,
                    -33.631415
                ],
                "type": "Point"
            }
        },
        "openingHours": [
            {
                "day": 1,
                "openTime": "8:30",
                "closeTime": "22:00"
            },
            {
                "day": 2,
                "openTime": "8:30",
                "closeTime": "22:00"
            },
            {
                "day": 3,
                "openTime": "8:30",
                "closeTime": "22:00"
            },
            {
                "day": 4,
                "openTime": "8:30",
                "closeTime": "22:00"
            },
            {
                "day": 5,
                "openTime": "8:30",
                "closeTime": "22:00"
            },
            {
                "day": 6,
                "openTime": "8:30",
                "closeTime": "22:00"
            },
            {
                "day": 7,
                "openTime": "8:30",
                "closeTime": "22:00"
            }
        ]
    },
    {
        "id": 299,
        "name": "Sub-Centro",
        "format": "EKONO",
        "location": {
            "country": {
                "code": "CL",
                "name": "CHILE"
            },
            "region": "Metropolitana",
            "city": "Santiago",
            "commune": "Las Condes",
            "address": "Metro Escuela Militar, Las Condes",
            "position": {
                "coordinates": [
                    -70.584132,
                    -33.414371
                ],
                "type": "Point"
            }
        },
        "openingHours": []
    },
    {
        "id": 247,
        "name": "Vicuna Mackenna Ii",
        "format": "EKONO",
        "location": {
            "country": {
                "code": "CL",
                "name": "CHILE"
            },
            "region": "Metropolitana",
            "city": "Santiago",
            "commune": "La Florida",
            "address": "V. Mackenna 8725-8799, La Florida",
            "position": {
                "coordinates": [
                    -70.59401,
                    -33.535364
                ],
                "type": "Point"
            }
        },
        "openingHours": []
    },
    {
        "id": 295,
        "name": "Independencia Ii",
        "format": "EKONO",
        "location": {
            "country": {
                "code": "CL",
                "name": "CHILE"
            },
            "region": "Metropolitana",
            "city": "Santiago",
            "commune": "Conchalí",
            "address": "Independencia 4553, Conchalí",
            "position": {
                "coordinates": [
                    -70.678177,
                    -33.386632
                ],
                "type": "Point"
            }
        },
        "openingHours": []
    },
    {
        "id": 510,
        "name": "Ba Los Morros",
        "format": "BODEGA",
        "location": {
            "country": {
                "code": "CL",
                "name": "CHILE"
            },
            "region": "Metropolitana",
            "city": "Santiago",
            "commune": "San Bernardo",
            "address": "Av. Padre Hurtado Nº 13310, San Bernardo",
            "position": {
                "coordinates": [
                    -70.675388,
                    -33.583279
                ],
                "type": "Point"
            }
        },
        "openingHours": []
    },
    {
        "id": 280,
        "name": "Ciudad Del Sol",
        "format": "EKONO",
        "location": {
            "country": {
                "code": "CL",
                "name": "CHILE"
            },
            "region": "Metropolitana",
            "city": "Santiago",
            "commune": "Puente Alto",
            "address": "Juan de Dios Malebrán 1750, Puente Alto",
            "position": {
                "coordinates": [
                    -70.588599,
                    -33.597992
                ],
                "type": "Point"
            }
        },
        "openingHours": []
    },
    {
        "id": 294,
        "name": "1 Transversal - Ph",
        "format": "EKONO",
        "location": {
            "country": {
                "code": "CL",
                "name": "CHILE"
            },
            "region": "Metropolitana",
            "city": "Santiago",
            "commune": "Padre Hurtado",
            "address": "Primera Transversal 800, Padre Hurtado",
            "position": {
                "coordinates": [
                    -70.798972,
                    -33.565312
                ],
                "type": "Point"
            }
        },
        "openingHours": []
    },
    {
        "id": 511,
        "name": "Ba Vivaceta",
        "format": "BODEGA",
        "location": {
            "country": {
                "code": "CL",
                "name": "CHILE"
            },
            "region": "Metropolitana",
            "city": "Santiago",
            "commune": "Independencia",
            "address": "Av. Fermín Vivaceta Nº 827, Independencia",
            "position": {
                "coordinates": [
                    -70.661948,
                    -33.422759
                ],
                "type": "Point"
            }
        },
        "openingHours": []
    },
    {
        "id": 512,
        "name": "Ba Pe#Aflor",
        "format": "BODEGA",
        "location": {
            "country": {
                "code": "CL",
                "name": "CHILE"
            },
            "region": "Metropolitana",
            "city": "Santiago",
            "commune": "Peñaflor",
            "address": "Av. 21 de Mayo Nº 4075, Peñaflor",
            "position": {
                "coordinates": [
                    -70.897423,
                    -33.606556
                ],
                "type": "Point"
            }
        },
        "openingHours": []
    },
    {
        "id": 274,
        "name": "Santa Luisa",
        "format": "EKONO",
        "location": {
            "country": {
                "code": "CL",
                "name": "CHILE"
            },
            "region": "Metropolitana",
            "city": "Santiago",
            "commune": "Quilicura",
            "address": "Santa Luisa 366, Quilicura",
            "position": {
                "coordinates": [
                    -70.738704,
                    -33.352264
                ],
                "type": "Point"
            }
        },
        "openingHours": []
    },
    {
        "id": 293,
        "name": "Luis Matte Larrain",
        "format": "EKONO",
        "location": {
            "country": {
                "code": "CL",
                "name": "CHILE"
            },
            "region": "Metropolitana",
            "city": "Santiago",
            "commune": "Puente Alto",
            "address": "Luis Matte Larraín 1734, Puente Alto",
            "position": {
                "coordinates": [
                    -70.600107,
                    -33.588484
                ],
                "type": "Point"
            }
        },
        "openingHours": []
    },
    {
        "id": 259,
        "name": "Curauma",
        "format": "EKONO",
        "location": {
            "country": {
                "code": "CL",
                "name": "CHILE"
            },
            "region": "V Región",
            "city": "Valparaíso",
            "commune": "Valparaíso",
            "address": "Av. Obispo Valdés Subercaseaux 1421, Local 1, Placilla, Valparaíso",
            "position": {
                "coordinates": [
                    -71.576571,
                    -33.123391
                ],
                "type": "Point"
            }
        },
        "openingHours": []
    },
    {
        "id": 626,
        "name": "Principe De Gales",
        "format": "LIDER",
        "location": {
            "country": {
                "code": "CL",
                "name": "CHILE"
            },
            "region": "Metropolitana",
            "city": "Santiago",
            "commune": "La Reina",
            "address": "Av. Principales de Gales N° 9140, La Reina",
            "position": {
                "coordinates": [
                    -70.535484,
                    -33.44081
                ],
                "type": "Point"
            }
        },
        "openingHours": [
            {
                "day": 1,
                "openTime": "8:30",
                "closeTime": "22:00"
            },
            {
                "day": 2,
                "openTime": "8:30",
                "closeTime": "22:00"
            },
            {
                "day": 3,
                "openTime": "8:30",
                "closeTime": "22:00"
            },
            {
                "day": 4,
                "openTime": "8:30",
                "closeTime": "22:00"
            },
            {
                "day": 5,
                "openTime": "8:30",
                "closeTime": "22:00"
            },
            {
                "day": 6,
                "openTime": "8:30",
                "closeTime": "22:00"
            },
            {
                "day": 7,
                "openTime": "8:30",
                "closeTime": "22:00"
            }
        ]
    },
    {
        "id": 526,
        "name": "Ba Chillan Terminal",
        "format": "BODEGA",
        "location": {
            "country": {
                "code": "CL",
                "name": "CHILE"
            },
            "region": "VIII Región",
            "city": "Chillán",
            "commune": "Chillán",
            "address": "Maipón Nº 873, Chillán",
            "position": {
                "coordinates": [
                    -72.099444,
                    -36.610833
                ],
                "type": "Point"
            }
        },
        "openingHours": []
    },
    {
        "id": 420,
        "name": "Av. Central",
        "format": "EKONO",
        "location": {
            "country": {
                "code": "CL",
                "name": "CHILE"
            },
            "region": "Metropolitana",
            "city": "Santiago",
            "commune": "Pedro Aguirre Cerda",
            "address": "Avenida Central 5960, Pedro Aguirre Cerda",
            "position": {
                "coordinates": [
                    -70.687636,
                    -33.498015
                ],
                "type": "Point"
            }
        },
        "openingHours": []
    },
    {
        "id": 422,
        "name": "Manquehue Sur",
        "format": "EKONO",
        "location": {
            "country": {
                "code": "CL",
                "name": "CHILE"
            },
            "region": "Metropolitana",
            "city": "Santiago",
            "commune": "Las Condes",
            "address": "Manquehue Sur 841, Las Condes",
            "position": {
                "coordinates": [
                    -70.565911,
                    -33.414232
                ],
                "type": "Point"
            }
        },
        "openingHours": []
    },
    {
        "id": 531,
        "name": "Ba Chiguayante",
        "format": "BODEGA",
        "location": {
            "country": {
                "code": "CL",
                "name": "CHILE"
            },
            "region": "VIII Región",
            "city": "Concepción",
            "commune": "Chiguayante",
            "address": "Av. Manuel Rodriguez N° 2550, Chiguayante",
            "position": {
                "coordinates": [
                    -73.017504,
                    -36.945106
                ],
                "type": "Point"
            }
        },
        "openingHours": []
    },
    {
        "id": 285,
        "name": "Segunda Transversal",
        "format": "EKONO",
        "location": {
            "country": {
                "code": "CL",
                "name": "CHILE"
            },
            "region": "Metropolitana",
            "city": "Santiago",
            "commune": "Maipú",
            "address": "Segunda Transversal 1022, Maipú",
            "position": {
                "coordinates": [
                    -70.747798,
                    -33.515733
                ],
                "type": "Point"
            }
        },
        "openingHours": []
    },
    {
        "id": 419,
        "name": "El Cortijo",
        "format": "EKONO",
        "location": {
            "country": {
                "code": "CL",
                "name": "CHILE"
            },
            "region": "Metropolitana",
            "city": "Santiago",
            "commune": "Conchalí",
            "address": "El Cortijo 1981, Conchalí",
            "position": {
                "coordinates": [
                    -70.688113,
                    -33.378207
                ],
                "type": "Point"
            }
        },
        "openingHours": []
    },
    {
        "id": 627,
        "name": "Express San Vicente",
        "format": "EXPRESS",
        "location": {
            "country": {
                "code": "CL",
                "name": "CHILE"
            },
            "region": "VI Región",
            "city": "San Vicente",
            "commune": "San Vicente",
            "address": "Germán Riesco esq Calle Diego Portales, San Vicente",
            "position": {
                "coordinates": [
                    -71.073056,
                    -34.440833
                ],
                "type": "Point"
            }
        },
        "openingHours": [
            {
                "day": 1,
                "openTime": "8:30",
                "closeTime": "22:00"
            },
            {
                "day": 2,
                "openTime": "8:30",
                "closeTime": "22:00"
            },
            {
                "day": 3,
                "openTime": "8:30",
                "closeTime": "22:00"
            },
            {
                "day": 4,
                "openTime": "8:30",
                "closeTime": "22:00"
            },
            {
                "day": 5,
                "openTime": "8:30",
                "closeTime": "22:00"
            },
            {
                "day": 6,
                "openTime": "8:30",
                "closeTime": "22:00"
            },
            {
                "day": 7,
                "openTime": "8:30",
                "closeTime": "22:00"
            }
        ]
    },
    {
        "id": 628,
        "name": "Hiper Santa Cruz",
        "format": "LIDER",
        "location": {
            "country": {
                "code": "CL",
                "name": "CHILE"
            },
            "region": "VI Región",
            "city": "Santa Cruz",
            "commune": "Santa Cruz",
            "address": "Rafael Casanova N° 344, Santa Cruz",
            "position": {
                "coordinates": [
                    -71.37,
                    -34.641667
                ],
                "type": "Point"
            }
        },
        "openingHours": [
            {
                "day": 1,
                "openTime": "8:30",
                "closeTime": "22:00"
            },
            {
                "day": 2,
                "openTime": "8:30",
                "closeTime": "22:00"
            },
            {
                "day": 3,
                "openTime": "8:30",
                "closeTime": "22:00"
            },
            {
                "day": 4,
                "openTime": "8:30",
                "closeTime": "22:00"
            },
            {
                "day": 5,
                "openTime": "8:30",
                "closeTime": "22:00"
            },
            {
                "day": 6,
                "openTime": "8:30",
                "closeTime": "22:00"
            },
            {
                "day": 7,
                "openTime": "8:30",
                "closeTime": "22:00"
            }
        ]
    },
    {
        "id": 528,
        "name": "Ba Curico Terminal",
        "format": "BODEGA",
        "location": {
            "country": {
                "code": "CL",
                "name": "CHILE"
            },
            "region": "VII Región",
            "city": "Curicó",
            "commune": "Curicó",
            "address": "Av. Maipú N° 798, Curicó",
            "position": {
                "coordinates": [
                    -71.246306,
                    -34.982559
                ],
                "type": "Point"
            }
        },
        "openingHours": []
    },
    {
        "id": 527,
        "name": "Ba Curico Centro",
        "format": "BODEGA",
        "location": {
            "country": {
                "code": "CL",
                "name": "CHILE"
            },
            "region": "VII Región",
            "city": "Curicó",
            "commune": "Curicó",
            "address": "Av. Camilo Henríquez N° 469, Curicó",
            "position": {
                "coordinates": [
                    -71.241465,
                    -34.981064
                ],
                "type": "Point"
            }
        },
        "openingHours": []
    },
    {
        "id": 423,
        "name": "Rosales",
        "format": "EKONO",
        "location": {
            "country": {
                "code": "CL",
                "name": "CHILE"
            },
            "region": "Metropolitana",
            "city": "Santiago",
            "commune": "Peñaflor",
            "address": "Rosales 0728, Peñaflor",
            "position": {
                "coordinates": [
                    -70.86207,
                    -33.606651
                ],
                "type": "Point"
            }
        },
        "openingHours": []
    },
    {
        "id": 621,
        "name": "Express Merced",
        "format": "EXPRESS",
        "location": {
            "country": {
                "code": "CL",
                "name": "CHILE"
            },
            "region": "Metropolitana",
            "city": "Santiago",
            "commune": "Santiago",
            "address": "Av. Merced N° 562, Santiago",
            "position": {
                "coordinates": [
                    -70.644252,
                    -33.438004
                ],
                "type": "Point"
            }
        },
        "openingHours": [
            {
                "day": 1,
                "openTime": "8:30",
                "closeTime": "22:00"
            },
            {
                "day": 2,
                "openTime": "8:30",
                "closeTime": "22:00"
            },
            {
                "day": 3,
                "openTime": "8:30",
                "closeTime": "22:00"
            },
            {
                "day": 4,
                "openTime": "8:30",
                "closeTime": "22:00"
            },
            {
                "day": 5,
                "openTime": "8:30",
                "closeTime": "22:00"
            },
            {
                "day": 6,
                "openTime": "8:30",
                "closeTime": "22:00"
            },
            {
                "day": 7,
                "openTime": "8:30",
                "closeTime": "22:00"
            }
        ]
    },
    {
        "id": 529,
        "name": "Ba Lo Ovalle",
        "format": "BODEGA",
        "location": {
            "country": {
                "code": "CL",
                "name": "CHILE"
            },
            "region": "Metropolitana",
            "city": "Santiago",
            "commune": "Lo Espejo",
            "address": "Lo Ovalle Nº 02356, Lo Espejo",
            "position": {
                "coordinates": [
                    -70.677623,
                    -33.508894
                ],
                "type": "Point"
            }
        },
        "openingHours": []
    },
    {
        "id": 624,
        "name": "Express La Plaza",
        "format": "EXPRESS",
        "location": {
            "country": {
                "code": "CL",
                "name": "CHILE"
            },
            "region": "Metropolitana",
            "city": "Santiago",
            "commune": "Las Condes",
            "address": "Av. La Plaza N° 590, Las Condes",
            "position": {
                "coordinates": [
                    -70.498438,
                    -33.390335
                ],
                "type": "Point"
            }
        },
        "openingHours": [
            {
                "day": 1,
                "openTime": "8:30",
                "closeTime": "22:00"
            },
            {
                "day": 2,
                "openTime": "8:30",
                "closeTime": "22:00"
            },
            {
                "day": 3,
                "openTime": "8:30",
                "closeTime": "22:00"
            },
            {
                "day": 4,
                "openTime": "8:30",
                "closeTime": "22:00"
            },
            {
                "day": 5,
                "openTime": "8:30",
                "closeTime": "22:00"
            },
            {
                "day": 6,
                "openTime": "8:30",
                "closeTime": "22:00"
            },
            {
                "day": 7,
                "openTime": "8:30",
                "closeTime": "22:00"
            }
        ]
    },
    {
        "id": 537,
        "name": "Ba Rahue Osorno",
        "format": "BODEGA",
        "location": {
            "country": {
                "code": "CL",
                "name": "CHILE"
            },
            "region": "X Región",
            "city": "Osorno",
            "commune": "Osorno",
            "address": "Calle República Nº 870, Osorno",
            "position": {
                "coordinates": [
                    -73.158611,
                    -40.573611
                ],
                "type": "Point"
            }
        },
        "openingHours": []
    },
    {
        "id": 271,
        "name": "Santa Isabel Ii",
        "format": "EKONO",
        "location": {
            "country": {
                "code": "CL",
                "name": "CHILE"
            },
            "region": "Metropolitana",
            "city": "Santiago",
            "commune": "Santiago",
            "address": "Lira 464, Santiago",
            "position": {
                "coordinates": [
                    -70.638985,
                    -33.448695
                ],
                "type": "Point"
            }
        },
        "openingHours": []
    },
    {
        "id": 539,
        "name": "Ba Petersen",
        "format": "BODEGA",
        "location": {
            "country": {
                "code": "CL",
                "name": "CHILE"
            },
            "region": "Metropolitana",
            "city": "Santiago",
            "commune": "Renca",
            "address": "Av. Vicuña Mackenna Nº 998, Renca",
            "position": {
                "coordinates": [
                    -70.746986,
                    -33.409222
                ],
                "type": "Point"
            }
        },
        "openingHours": []
    },
    {
        "id": 533,
        "name": "Ba Carmen Maipu",
        "format": "BODEGA",
        "location": {
            "country": {
                "code": "CL",
                "name": "CHILE"
            },
            "region": "Metropolitana",
            "city": "Santiago",
            "commune": "Maipú",
            "address": "Av. Sur Nº 411, Maipú",
            "position": {
                "coordinates": [
                    -70.762336,
                    -33.520659
                ],
                "type": "Point"
            }
        },
        "openingHours": []
    },
    {
        "id": 541,
        "name": "Ba Jaime Guzman",
        "format": "BODEGA",
        "location": {
            "country": {
                "code": "CL",
                "name": "CHILE"
            },
            "region": "Metropolitana",
            "city": "Santiago",
            "commune": "Renca",
            "address": "Av. Caupolicán Nº 1520, Renca",
            "position": {
                "coordinates": [
                    -70.702991,
                    -33.402442
                ],
                "type": "Point"
            }
        },
        "openingHours": []
    },
    {
        "id": 544,
        "name": "Ba San Felipe",
        "format": "BODEGA",
        "location": {
            "country": {
                "code": "CL",
                "name": "CHILE"
            },
            "region": "V Región",
            "city": "San Felipe",
            "commune": "San Felipe",
            "address": "Av. Maipú N° 1121, San Felipe",
            "position": {
                "coordinates": [
                    -70.729751,
                    -32.748102
                ],
                "type": "Point"
            }
        },
        "openingHours": []
    },
    {
        "id": 534,
        "name": "Ba Alerce",
        "format": "BODEGA",
        "location": {
            "country": {
                "code": "CL",
                "name": "CHILE"
            },
            "region": "X Región",
            "city": "Pto Montt",
            "commune": "Puerto Montt",
            "address": "Calle Parque Alerce Andino Nº 1901, Puerto Montt",
            "position": {
                "coordinates": [
                    -72.914875,
                    -41.407433
                ],
                "type": "Point"
            }
        },
        "openingHours": []
    }
]